Movielens
…
## `summarise()` ungrouping output (override with `.groups` argument)

longtail <- left_join(longtail, temp)

## Joining, by = "user_id"

longtail %>% 
  group_by(user_id) %>%
  mutate(percent100 = max(rank))

## # A tibble: 10,000,054 x 9
## # Groups:   user_id [69,878]
##    movie_id num_of_ratings  rank  cumsum user_id rating timestamp
##       <dbl>          <int> <dbl>   <dbl>   <dbl>  <dbl>     <dbl>
##  1      296          34864     1 0.00349      10    2      9.42e8
##  2      296          34864     1 0.00349      11    3      9.46e8
##  3      296          34864     1 0.00349      13    4      1.04e9
##  4      296          34864     1 0.00349      18    5      1.11e9
##  5      296          34864     1 0.00349      22    5      8.39e8
##  6      296          34864     1 0.00349      23    4      8.50e8
##  7      296          34864     1 0.00349      34    1      9.82e8
##  8      296          34864     1 0.00349      36    5      1.05e9
##  9      296          34864     1 0.00349      37    5      1.11e9
## 10      296          34864     1 0.00349      38    4.5    1.17e9
## # ... with 10,000,044 more rows, and 2 more variables:
## #   ratings_by_user_count <int>, percent100 <dbl>
…
